<svg width="33" height="32" viewBox="0 0 33 32" fill="none" xmlns="http://www.w3.org/2000/svg">
<mask id="path-1-inside-1_4748_5180" fill="white">
<path d="M28.3552 15.3116L17.2874 4.25188C17.2077 4.17204 17.1131 4.10869 17.0089 4.06547C16.9047 4.02225 16.793 4 16.6802 4C16.5673 4 16.4556 4.02225 16.3514 4.06547C16.2472 4.10869 16.1526 4.17204 16.0729 4.25188L5.00516 15.3116C4.68272 15.634 4.5 16.072 4.5 16.5288C4.5 17.4773 5.27117 18.2485 6.21968 18.2485H7.38584V26.1402C7.38584 26.6158 7.77008 27 8.24567 27H14.9605V20.9811H17.9699V27H25.1146C25.5902 27 25.9745 26.6158 25.9745 26.1402V18.2485H27.1406C27.5974 18.2485 28.0354 18.0684 28.3578 17.7433C29.0269 17.0715 29.0269 15.9833 28.3552 15.3116Z"/>
</mask>
<path d="M17.2874 4.25188L16.0488 5.48811L16.0504 5.48977L17.2874 4.25188ZM16.0729 4.25188L17.3099 5.48977L17.3115 5.48811L16.0729 4.25188ZM5.00516 15.3116L3.76817 14.0737L3.76772 14.0741L5.00516 15.3116ZM7.38584 18.2485H9.13584V16.4985H7.38584V18.2485ZM14.9605 27V28.75H16.7105V27H14.9605ZM14.9605 20.9811V19.2311H13.2105V20.9811H14.9605ZM17.9699 20.9811H19.7199V19.2311H17.9699V20.9811ZM17.9699 27H16.2199V28.75H17.9699V27ZM25.9745 18.2485V16.4985H24.2245V18.2485H25.9745ZM28.3578 17.7433L27.1179 16.5083L27.1153 16.511L28.3578 17.7433ZM29.5921 14.0737L18.5244 3.014L16.0504 5.48977L27.1182 16.5495L29.5921 14.0737ZM18.5261 3.01566C18.2838 2.77295 17.9961 2.58039 17.6794 2.44901L16.3384 5.68193C16.23 5.63699 16.1316 5.57112 16.0488 5.48811L18.5261 3.01566ZM17.6794 2.44901C17.3626 2.31763 17.0231 2.25 16.6802 2.25V5.75C16.5629 5.75 16.4467 5.72687 16.3384 5.68193L17.6794 2.44901ZM16.6802 2.25C16.3372 2.25 15.9977 2.31763 15.681 2.44901L17.0219 5.68193C16.9136 5.72687 16.7974 5.75 16.6802 5.75V2.25ZM15.681 2.44901C15.3642 2.58039 15.0765 2.77295 14.8342 3.01566L17.3115 5.48811C17.2287 5.57113 17.1303 5.63699 17.0219 5.68193L15.681 2.44901ZM14.8359 3.014L3.76817 14.0737L6.24214 16.5495L17.3099 5.48977L14.8359 3.014ZM3.76772 14.0741C3.11918 14.7227 2.75 15.6049 2.75 16.5288H6.25C6.25 16.5341 6.24892 16.5384 6.24767 16.5414C6.24646 16.5443 6.24474 16.5469 6.24259 16.549L3.76772 14.0741ZM2.75 16.5288C2.75 18.4438 4.30467 19.9985 6.21968 19.9985V16.4985C6.22164 16.4985 6.22738 16.4992 6.23335 16.5017C6.23814 16.5037 6.24052 16.5058 6.24158 16.5069C6.24265 16.5079 6.2447 16.5103 6.24673 16.5151C6.24926 16.5211 6.25 16.5268 6.25 16.5288H2.75ZM6.21968 19.9985H7.38584V16.4985H6.21968V19.9985ZM5.63584 18.2485V26.1402H9.13584V18.2485H5.63584ZM5.63584 26.1402C5.63584 27.5823 6.80358 28.75 8.24567 28.75V25.25C8.73657 25.25 9.13584 25.6493 9.13584 26.1402H5.63584ZM8.24567 28.75H14.9605V25.25H8.24567V28.75ZM16.7105 27V20.9811H13.2105V27H16.7105ZM14.9605 22.7311H17.9699V19.2311H14.9605V22.7311ZM16.2199 20.9811V27H19.7199V20.9811H16.2199ZM17.9699 28.75H25.1146V25.25H17.9699V28.75ZM25.1146 28.75C26.5567 28.75 27.7245 27.5823 27.7245 26.1402H24.2245C24.2245 25.6493 24.6237 25.25 25.1146 25.25V28.75ZM27.7245 26.1402V18.2485H24.2245V26.1402H27.7245ZM25.9745 19.9985H27.1406V16.4985H25.9745V19.9985ZM27.1406 19.9985C28.0583 19.9985 28.9453 19.6361 29.6004 18.9756L27.1153 16.511C27.1198 16.5065 27.1252 16.503 27.1303 16.5009C27.1352 16.4988 27.1389 16.4985 27.1406 16.4985V19.9985ZM29.5978 18.9783C30.9473 17.6232 30.9474 15.4289 29.5926 14.0741L27.1177 16.549C27.118 16.5492 27.1169 16.5482 27.1153 16.5458C27.1139 16.5436 27.1125 16.5411 27.1115 16.5386C27.1096 16.5339 27.1093 16.5306 27.1093 16.5288C27.1093 16.527 27.1096 16.5238 27.1115 16.5191C27.1125 16.5166 27.1138 16.5141 27.1153 16.5118C27.1169 16.5094 27.118 16.5083 27.1179 16.5083L29.5978 18.9783Z" fill="#F57138" mask="url(#path-1-inside-1_4748_5180)"/>
</svg>
